<svg xmlns="http://www.w3.org/2000/svg" width="50" height="50" viewBox="0 0 50 50">
  <g id="Accordion_Button" data-name="Accordion Button" transform="translate(-5 -5)" opacity="0.52">
    <path id="Path_218" data-name="Path 218" d="M30,5A25,25,0,1,0,55,30,25.028,25.028,0,0,0,30,5Zm0,47.222A22.222,22.222,0,1,1,52.222,30,22.247,22.247,0,0,1,30,52.222Z"/>
    <path id="Path_219" data-name="Path 219" d="M50.556,40.833H43.611V33.889a1.389,1.389,0,1,0-2.778,0v6.944H33.889a1.389,1.389,0,1,0,0,2.778h6.944v6.944a1.389,1.389,0,0,0,2.778,0V43.611h6.944a1.389,1.389,0,0,0,0-2.778Z" transform="translate(-12.222 -12.222)"/>
  </g>
</svg>
