{
  "universal": {
    "skipInstall": false,
    "directory": ".",
    "project": "maxagent"
  },
  "serverless": {
    "provider": "aws",
    "skipInstall": false,
    "directory": ".",
    "project": "maxagent",
    "serverless": {
      "aws": {},
      "gcloud": {}
    }
  }
}